vhdl work "pipo_8b_lsr.vhd"
vhdl work "mux_2s.vhd"
vhdl work "i_pipo_lsl.vhd"
vhdl work "counter_4b_minus.vhd"
vhdl work "accumulator_8b.vhd"
vhdl work "uc.vhd"
vhdl work "cd.vhd"
vhdl work "multiplier.vhd"
