vhdl isim_temp "pipo_8b_lsr.vhd"
vhdl isim_temp "mux_2s.vhd"
vhdl isim_temp "i_pipo_lsl.vhd"
vhdl isim_temp "counter_4b_minus.vhd"
vhdl isim_temp "accumulator_8b.vhd"
vhdl isim_temp "uc.vhd"
vhdl isim_temp "conv_7seg.vhd"
vhdl isim_temp "cd.vhd"
vhdl isim_temp "multiplier.vhd"
vhdl isim_temp "tb_multiplier.vhd"
