vhdl work "ipcore_dir/rom_right.vhd"
vhdl work "ipcore_dir/rom_left.vhd"
vhdl work "Common.vhd"
vhdl work "cnt_mod.vhd"
vhdl work "slots_dp.vhd"
vhdl work "slots_cu.vhd"
vhdl work "divisor.vhd"
vhdl work "conv_7seg.vhd"
vhdl work "slots_top.vhd"
