work	"Common.vhd"
work	"cnt_mod.vhd"
work	"conv_7seg.vhd"
work	"divisor.vhd"
work	"ipcore_dir/rom_left.vhd"
work	"ipcore_dir/rom_right.vhd"
work	"slots_cu.vhd"
work	"slots_dp.vhd"
work	"slots_top.vhd"
